<?xml version="1.0" encoding="utf-8"?>
<!-- Generator: Adobe Illustrator 18.0.0, SVG Export Plug-In . SVG Version: 6.00 Build 0)  -->
<!DOCTYPE svg PUBLIC "-//W3C//DTD SVG 1.1//EN" "http://www.w3.org/Graphics/SVG/1.1/DTD/svg11.dtd">
<svg version="1.1" id="Ebene_1" xmlns="http://www.w3.org/2000/svg" xmlns:xlink="http://www.w3.org/1999/xlink" x="0px" y="0px"
	 viewBox="0 0 1280 1024" enable-background="new 0 0 1280 1024" xml:space="preserve">
<path fill="#1D1D1B" d="M678.4,342.4v-9.6H457.6c-32,0-57.6,25.6-57.6,57.6v246.4c0,32,25.6,57.6,57.6,57.6h220.8v-9.6L883.2,832
	V192L678.4,342.4z M454.4,662.4c-12.8,0-25.6-12.8-25.6-25.6V390.4c0-12.8,12.8-25.6,25.6-25.6h188.8v38.4v217.6v41.6H454.4z
	 M848,768L675.2,643.8V380.2L848,256V768z"/>
</svg>
